20
	A 20
		a 100 1 b 100 2 c 100 3 d 100 4 e 100 5 f 100 6 g 100 7 h 100 8 i 100 9 j 100 10
		k 100 11 l 100 12 m 100 13 n 100 14 o 100 15 p 100 16 q 100 17 r 100 18 s 100 19 t 100 20
	B 20
		a 100 1 b 100 2 c 100 3 d 100 4 e 100 5 f 100 6 g 100 7 h 100 8 i 100 9 j 100 10
		k 100 11 l 100 12 m 100 13 n 100 14 o 100 15 p 100 16 q 100 17 r 100 18 s 100 19 t 100 20
	C 20
		a 100 1 b 100 2 c 100 3 d 100 4 e 100 5 f 100 6 g 100 7 h 100 8 i 100 9 j 100 10
		k 100 11 l 100 12 m 100 13 n 100 14 o 100 15 p 100 16 q 100 17 r 100 18 s 100 19 t 100 20
	D 20
		a 100 1 b 100 2 c 100 3 d 100 4 e 100 5 f 100 6 g 100 7 h 100 8 i 100 9 j 100 10
		k 100 11 l 100 12 m 100 13 n 100 14 o 100 15 p 100 16 q 100 17 r 100 18 s 100 19 t 100 20
	E 20
		a 100 1 b 100 2 c 100 3 d 100 4 e 100 5 f 100 6 g 100 7 h 100 8 i 100 9 j 100 10
		k 100 11 l 100 12 m 100 13 n 100 14 o 100 15 p 100 16 q 100 17 r 100 18 s 100 19 t 100 20
	F 20
		a 100 1 b 100 2 c 100 3 d 100 4 e 100 5 f 100 6 g 100 7 h 100 8 i 100 9 j 100 10
		k 100 11 l 100 12 m 100 13 n 100 14 o 100 15 p 100 16 q 100 17 r 100 18 s 100 19 t 100 20
	G 20
		a 100 1 b 100 2 c 100 3 d 100 4 e 100 5 f 100 6 g 100 7 h 100 8 i 100 9 j 100 10
		k 100 11 l 100 12 m 100 13 n 100 14 o 100 15 p 100 16 q 100 17 r 100 18 s 100 19 t 100 20
	H 20
		a 100 1 b 100 2 c 100 3 d 100 4 e 100 5 f 100 6 g 100 7 h 100 8 i 100 9 j 100 10
		k 100 11 l 100 12 m 100 13 n 100 14 o 100 15 p 100 16 q 100 17 r 100 18 s 100 19 t 100 20
	I 20
		a 100 1 b 100 2 c 100 3 d 100 4 e 100 5 f 100 6 g 100 7 h 100 8 i 100 9 j 100 10
		k 100 11 l 100 12 m 100 13 n 100 14 o 100 15 p 100 16 q 100 17 r 100 18 s 100 19 t 100 20
	J 20
		a 100 1 b 100 2 c 100 3 d 100 4 e 100 5 f 100 6 g 100 7 h 100 8 i 100 9 j 100 10
		k 100 11 l 100 12 m 100 13 n 100 14 o 100 15 p 100 16 q 100 17 r 100 18 s 100 19 t 100 20
	K 20
		a 100 1 b 100 2 c 100 3 d 100 4 e 100 5 f 100 6 g 100 7 h 100 8 i 100 9 j 100 10
		k 100 11 l 100 12 m 100 13 n 100 14 o 100 15 p 100 16 q 100 17 r 100 18 s 100 19 t 100 20
	L 20
		a 100 1 b 100 2 c 100 3 d 100 4 e 100 5 f 100 6 g 100 7 h 100 8 i 100 9 j 100 10
		k 100 11 l 100 12 m 100 13 n 100 14 o 100 15 p 100 16 q 100 17 r 100 18 s 100 19 t 100 20
	M 20
		a 100 1 b 100 2 c 100 3 d 100 4 e 100 5 f 100 6 g 100 7 h 100 8 i 100 9 j 100 10
		k 100 11 l 100 12 m 100 13 n 100 14 o 100 15 p 100 16 q 100 17 r 100 18 s 100 19 t 100 20
	N 20
		a 100 1 b 100 2 c 100 3 d 100 4 e 100 5 f 100 6 g 100 7 h 100 8 i 100 9 j 100 10
		k 100 11 l 100 12 m 100 13 n 100 14 o 100 15 p 100 16 q 100 17 r 100 18 s 100 19 t 100 20
	O 20
		a 100 1 b 100 2 c 100 3 d 100 4 e 100 5 f 100 6 g 100 7 h 100 8 i 100 9 j 100 10
		k 100 11 l 100 12 m 100 13 n 100 14 o 100 15 p 100 16 q 100 17 r 100 18 s 100 19 t 100 20
	P 20
		a 100 1 b 100 2 c 100 3 d 100 4 e 100 5 f 100 6 g 100 7 h 100 8 i 100 9 j 100 10
		k 100 11 l 100 12 m 100 13 n 100 14 o 100 15 p 100 16 q 100 17 r 100 18 s 100 19 t 100 20
	Q 20
		a 100 1 b 100 2 c 100 3 d 100 4 e 100 5 f 100 6 g 100 7 h 100 8 i 100 9 j 100 10
		k 100 11 l 100 12 m 100 13 n 100 14 o 100 15 p 100 16 q 100 17 r 100 18 s 100 19 t 100 20
	R 20
		a 100 1 b 100 2 c 100 3 d 100 4 e 100 5 f 100 6 g 100 7 h 100 8 i 100 9 j 100 10
		k 100 11 l 100 12 m 100 13 n 100 14 o 100 15 p 100 16 q 100 17 r 100 18 s 100 19 t 100 20
	S 20
		a 100 1 b 100 2 c 100 3 d 100 4 e 100 5 f 100 6 g 100 7 h 100 8 i 100 9 j 100 10
		k 100 11 l 100 12 m 100 13 n 100 14 o 100 15 p 100 16 q 100 17 r 100 18 s 100 19 t 100 20
	T 20
		a 100 1 b 100 2 c 100 3 d 100 4 e 100 5 f 100 6 g 100 7 h 100 8 i 100 9 j 100 10
		k 100 11 l 100 12 m 100 13 n 100 14 o 100 15 p 100 16 q 100 17 r 100 18 s 100 19 t 100 20
10
	20 A B C D E F G H I J K L M N O P Q R S T
	Target 90
	Duar 0
	Restock 0
	Transfer 0
	20 A B C D E F G H I J K L M N O P Q R S T
	Target 91
	Duar 0
	Restock 0
	Transfer 0
	20 A B C D E F G H I J K L M N O P Q R S T
	Target 92
	Duar 0
	Restock 0
	Transfer 0
	20 A B C D E F G H I J K L M N O P Q R S T
	Target 93
	Duar 0
	Restock 0
	Transfer 0
	20 A B C D E F G H I J K L M N O P Q R S T
	Target 94
	Duar 0
	Restock 0
	Transfer 0
	20 A B C D E F G H I J K L M N O P Q R S T
	Target 95
	Duar 0
	Restock 0
	Transfer 0
	20 A B C D E F G H I J K L M N O P Q R S T
	Target 96
	Duar 0
	Restock 0
	Transfer 0
	20 A B C D E F G H I J K L M N O P Q R S T
	Target 97
	Duar 0
	Restock 0
	Transfer 0
	20 A B C D E F G H I J K L M N O P Q R S T
	Target 98
	Duar 0
	Restock 0
	Transfer 0
	20 A B C D E F G H I J K L M N O P Q R S T
	Target 99
	Duar 0
	Restock 0
	Transfer 0
	20 A B C D E F G H I J K L M N O P Q R S T
	Target 100
	Duar 0
	Restock 0
	Transfer 0
