// Case 1
8 9 9
1 3 4
2 1 20
1 2 11
4 2 1
4 6 3
3 5 4
4 5 5
7 5 3
6 7 2
OS 2 3 4
CCWGD 1 4
CCWGD 1 11
LAOR 5 6
LAORC 5 6
LAORC 1 2
SR 2 7
SM 2 7
LAOR 1 8


Case 2
7 8 12
1 2 10
1 3 5
1 4 12
2 3 3
4 2 20
3 4 1
5 6 3
6 5 2
OS 3 5
OS 7
CCWGD 1 1
CCWGD 7 100
LAOR 5 6
LAOR 2 5
LAORC 7 5
LAORC 6 5
SR 1 4
SR 5 3
SM 1 3
SM 6 7


Case LAORC
7 9 1
1 2 1
1 3 1
2 3 1 
2 4 1
3 4 1
4 5 1
4 6 1
5 7 1
6 7 1
LAORC 1 7

5 6 1
1 2 9
1 3 6
1 4 5
1 5 3
3 2 2
3 4 4
SR 1 5


Test Case 4
10 19 5
1 3 4
9 4 3
6 5 1
5 7 5
6 5 5
10 3 5
8 5 5
4 10 5
10 4 5
3 4 1
6 2 1
7 4 3
4 10 5
7 3 1
9 8 5
6 3 4
3 5 3
5 1 1
9 1 5
SM 8 5
OS 1 3 4 5 7 10
SM 10 1
LAORC 3 9
CCWGD 8 19

6 9 1
3 6 1
4 5 4
2 6 2
5 4 4
4 6 1
4 3 2
5 4 5
2 1 5
3 5 1
LAORC 2 5
LAORC 1 2
LAORC 1 4
LAOR 2 5
SM 5 4
LAOR 3 4

12 22 1
4 8 4
9 11 3
7 2 4
4 5 5
11 12 5
5 3 2
6 3 3
4 10 3
5 9 5
9 4 1
2 5 3
3 9 4
11 12 1
11 2 5
12 10 4
8 11 1
10 7 2
8 3 5
12 9 5
6 8 3
11 1 1
2 9 3
LAORC 12 6